^D:\UE_PROJECTS\MYAPP_16_5\MYAPP_16_5\MYAPP_16_5\MYAPP_16_5.CPP
D:\UE_PROJECTS\MYAPP_16_5\MYAPP_16_5\MYAPP_16_5\X64\DEBUG\VC143.PDB
D:\UE_PROJECTS\MYAPP_16_5\MYAPP_16_5\MYAPP_16_5\X64\DEBUG\VC143.IDB
D:\UE_PROJECTS\MYAPP_16_5\MYAPP_16_5\MYAPP_16_5\X64\DEBUG\MYAPP_16_5.OBJ
